[
	{
		"name": "customDecimal",
		"fullyQualifiedImplementation": "org.bitbucket.askllc.fermenter.cookbook.local.referencing.domain.bizobj.CustomDecimal",
		"shortImplementation": "CustomDecimal"
	}
]