{
  "package" : "org.bitbucket.askllc.fermenter.cookbook.domain",
  "name" : "BeerExampleEntity",
  "table" : "BEER_ENTITY",
  "documentation" : "Entity to help with the Getting Started Guide",
  "identifier" : {
    "name" : "primaryKey",
    "type" : "uuid",
    "column" : "BEER_ENTITY_ID",
    "required" : true,
    "generator" : "uuid"
  },
  "fields" : [ {
    "name" : "beerType",
    "documentation" : "What kind of beer this is",
    "type" : "string",
    "column" : "BEER_TYPE",
    "label" : "Beer Type",
    "validation" : {
      "maxLength" : 20,
      "minLength" : 2
    }
  } ]
}
