{
  "package" : "org.bitbucket.askllc.fermenter.cookbook.domain",
  "name" : "ForeignKeyWithColumnDefinition",
  "table" : "FK_WITH_COLUMN_DEFINITION",
  "identifier" : {
    "name" : "id",
    "type" : "uuid",
    "column" : "FK_WITH_COLUMN_DEFINITION_ID",
    "required" : true,
    "generator" : "uuid"
  }
}