{
  "package" : "org.bitbucket.askllc.fermenter.cookbook.domain",
  "name" : "IdentityKeyedEntity",
  "table" : "IDENTITY_KEYED_ENTITY",
  "documentation" : "Entity that demonstrates uses of an IDENTITY as a generated value primary key",
  "identifier" : {
    "name" : "id",
    "type" : "integer",
    "column" : "IDENTITY_KEYED_ENTITY_ID",
    "required" : true,
    "generator" : "identity"
  }
}