{
  "package" : "org.bitbucket.askllc.fermenter.cookbook.domain",
  "name" : "LongKeyedEntity",
  "table" : "LONG_KEYED_ENTITY",
  "documentation" : "Entity that demonstrates uses a long as a generated value primary key",
  "identifier" : {
    "name" : "id",
    "type" : "long",
    "column" : "LONG_KEYED_ENTITY_ID",
    "required" : true,
    "generator" : "auto"
  }
}