{
  "package" : "org.bitbucket.askllc.fermenter.cookbook.domain",
  "name" : "MappedSubclassB",
  "table" : "MAPPED_SUBCLASS_B",
  "documentation" : "Sub entity of MappedSuperclassParent demonstrating an inheritance hierarchy with a mapped superclass strategy",
  "parent" : {
    "package" : "org.bitbucket.askllc.fermenter.cookbook.domain",
    "type" : "MappedSuperclassParent",
    "inheritanceStrategy" : "mapped-superclass"
  },
  "identifier" : {
    "name" : "id",
    "type" : "uuid",
    "column" : "CHILD_B_ID",
    "required" : true,
    "generator" : "uuid"
  },
  "fields" : [ {
    "name" : "childBType",
    "documentation" : "String value specific to this subclass",
    "type" : "string",
    "column" : "CHILD_B_TYPE"
  } ]
}