{
  "package" : "org.bitbucket.askllc.fermenter.cookbook.domain",
  "name" : "ServiceEntityExample",
  "table" : "SERVICE_ENTITY_EXAMPLE",
  "documentation" : "Entity that demonstrates uses a generated value primary key",
  "identifier" : {
    "name" : "id",
    "type" : "uuid",
    "column" : "SERVICE_ENTITY_EXAMPLE_ID",
    "required" : true,
    "generator" : "uuid"
  }
}