{
  "package" : "org.bitbucket.askllc.fermenter.cookbook.domain",
  "name" : "TableNameMismatch",
  "table" : "NEW_TABLE_NAME",
  "documentation" : "Entity that demonstrates an error when table names drift between src/main resources and metamodel instances",
  "identifier" : {
    "name" : "id",
    "type" : "integer",
    "column" : "NEW_TABLE_NAME_ID",
    "required" : true,
    "generator" : "identity"
  }
}