{
  "package" : "org.bitbucket.askllc.fermenter.cookbook.domain",
  "name" : "UuidKeyedEntity",
  "table" : "UUID_KEYED_ENTITY",
  "documentation" : "Entity that demonstrates uses a UUID as a generated value primary key",
  "identifier" : {
    "name" : "id",
    "type" : "uuid",
    "column" : "UUID_KEYED_ENTITY_ID",
    "required" : true,
    "generator" : "uuid"
  }
}