{
  "package" : "org.bitbucket.askllc.fermenter.cookbook.local.referencing.domain",
  "name" : "Placeholder",
  "table" : "PLACEHOLDER",
  "documentation" : "Generate an entity so we can not only test local call\n\t\toptimization",
  "identifier" : {
    "name" : "id",
    "type" : "uuid",
    "column" : "PLACEHOLDER_ID",
    "required" : true,
    "generator" : "uuid"
  },
  "fields" : [ {
    "name" : "customTypedField",
    "documentation" : "use a custom type from a local types.json file",
    "type" : "customDecimal",
    "column" : "CUSTOM_FIELD"
  } ]
}