{
	"package": "org.bitbucket.askllc.fermenter.cookbook.domain",
	"name": "SampleMessages",
	"messages": [
		{
			"name": "hello",
			"text": "Hello, how are you?"
		},
		{
			"name": "hello.world",
			"text": "Hello, world!"
		},
		{
			"name": "requires.sort",
			"text": "Sorting is required"
		},
		{
			"name": "invalid.entity.key",
			"text": "A look up with the given key did not return anything"
		},
		{
			"name": "valid.message",
			"text": "This is a valid message used for testing purposes"
		},
		{
			"name": "heartbeat",
			"text": "Server is responsive"
		},
		{
			"name": "bulk.operation.failed",
			"text": "The bulk save failed because at least one object could not be saved. The object IDs in question are: ${objectIds}"
		},
		{
			"name": "contract.test",
			"text": "This message can be used to convey information or error messages in support of general service contract testing.  Contract test method ${methodName}"
		},
		{
			"name": "example.service.failure",
			"text": "The process that you have attempted to run has failed. This is for attempt ${attemptNumber}"
		}
	]
}