{
  "package" : "org.bitbucket.askllc.fermenter.cookbook.domain",
  "name" : "BusinessKey",
  "operations" : [{
    "name" : "findByBusinessKey",
    "parameters" : [ {
      "name" : "businessKey",
      "type" : "string",
      "documentation" : "business key field of the entity to retrieve"
    } ],
    "return" : {
      "package" : "org.bitbucket.askllc.fermenter.cookbook.domain",
      "type" : "BusinessKeyedExample"
    }
  }]
}